#
# Cargo Ship.mtl
#

newmtl Texture
illum 2
Kd 1.000000 1.000000 1.000000
Ka 0.000000 0.000000 0.000000
Ks 0.000000 0.000000 0.000000
Ke 0.000000 0.000000 0.000000
Ns 0.000000

newmtl Glass
illum 2
Kd 1.000000 1.000000 1.000000
Ka 0.000000 0.000000 0.000000
Ks 0.000000 0.000000 0.000000
Ke 0.000000 0.000000 0.000000
Ns 0.000000
map_Kd alleywin5.png

newmtl Smokestack
illum 2
Kd 1.000000 1.000000 1.000000
Ka 0.000000 0.000000 0.000000
Ks 0.000000 0.000000 0.000000
Ke 0.000000 0.000000 0.000000
Ns 0.000000
map_Kd boatfunnel1_128.png

newmtl Hull
illum 2
Kd 1.000000 1.000000 1.000000
Ka 0.000000 0.000000 0.000000
Ks 0.000000 0.000000 0.000000
Ke 0.000000 0.000000 0.000000
Ns 0.000000
map_Kd freighterhull1.png

newmtl Floor
illum 2
Kd 1.000000 1.000000 1.000000
Ka 0.000000 0.000000 0.000000
Ks 0.000000 0.000000 0.000000
Ke 0.000000 0.000000 0.000000
Ns 0.000000
map_Kd steel256128.png

newmtl Crates
illum 2
Kd 1.000000 1.000000 1.000000
Ka 0.000000 0.000000 0.000000
Ks 0.000000 0.000000 0.000000
Ke 0.000000 0.000000 0.000000
Ns 0.000000
map_Kd cratetop128.png

newmtl Bridge
illum 2
Kd 1.000000 1.000000 1.000000
Ka 0.000000 0.000000 0.000000
Ks 0.000000 0.000000 0.000000
Ke 0.000000 0.000000 0.000000
Ns 0.000000
map_Kd freighter2.png

newmtl Holes
illum 2
Kd 1.000000 1.000000 1.000000
Ka 0.000000 0.000000 0.000000
Ks 0.000000 0.000000 0.000000
Ke 0.000000 0.000000 0.000000
Ns 0.000000
map_Kd boatfunnel2_64.png
